{
  "version": 2,
  "observations": [
    {
      "observation_id": "39288",
      "date_from": "20160128",
      "date_to": "20160203",
      "control": {
        "testid": "20441"
      },
      "experiments": [
        {
          "testid": "20442"
        }
      ],
      "tags": [
        "images_gp",
        "red 2",
        "gp_aspect_img_snippet.ranking",
        "images_desktop"
      ]
    },
    {
      "observation_id": "39289",
      "date_from": "20160128",
      "date_to": "20160203",
      "control": {
        "testid": "20441"
      },
      "experiments": [
        {
          "testid": "20443"
        }
      ],
      "tags": [
        "gp_aspect_img_snippet.ranking",
        "images_gp",
        "red 2",
        "images_desktop"
      ]
    }
  ]
}